#Command: "D:\Program Files\Microsoft Visual Studio 11.0\VC\bin\CL.exe" @C:\Users\Sia\AppData\Local\Temp\tmpa795cfa988944d8daace07c026697fca.rsp
^D:\MAGNET\CLASSES\APPDELEGATE.CPP|D:\MAGNET\CLASSES\BALL.CPP|D:\MAGNET\CLASSES\GROUND.CPP|D:\MAGNET\CLASSES\HELLOWORLDSCENE.CPP|D:\MAGNET\CLASSES\MENU.CPP|D:\MAGNET\CLASSES\PROTOTYPESCENE.CPP|D:\MAGNET\CLASSES\PULLPUSH.CPP|D:\MAGNET\PROJ.WIN32\MAIN.CPP
D:\NETMARBLE\GV ONLINE KR\GAMEGUARD\NPGGNT.DES
C:\USERS\SIA\APPDATA\LOCAL\TEMP\TMPE53BA4A7E4C149A5AC3A5ECDB90CDEBD.TMP
